[{"line":1,"elements":[{"line":3,"name":"","description":"","type":"background","keyword":"Background","steps":[{"name":"def expectedOutput = read('..\/Data\/result.json')","result":{"duration":1151181800,"status":"passed"},"match":{"location":"karate","arguments":[]},"keyword":"*","line":5,"doc_string":{"content_type":"","value":"15:07:41.497 skipping bootstrap configuration: could not find or read file: classpath:karate-config.js","line":5}}]},{"line":7,"name":"GET all users details","description":"","id":"get-all-users-details","type":"scenario","keyword":"Scenario","steps":[{"name":"url 'https:\/\/reqres.in\/api\/users?page=2'","result":{"duration":12031400,"status":"passed"},"match":{"location":"karate","arguments":[]},"keyword":"Given","line":8},{"name":"method GET","result":{"duration":1872974300,"status":"passed"},"match":{"location":"karate","arguments":[]},"keyword":"When","line":9,"doc_string":{"content_type":"","value":"15:07:44.145 request:\n1 > GET https:\/\/reqres.in\/api\/users?page=2\n1 > Accept-Encoding: gzip,deflate\n1 > Connection: Keep-Alive\n1 > Host: reqres.in\n1 > User-Agent: Apache-HttpClient\/4.5.12 (Java\/1.8.0_181)\n\n15:07:44.625 response time in milliseconds: 488.03\n1 < 200\n1 < Access-Control-Allow-Origin: *\n1 < Age: 3823\n1 < CF-Cache-Status: HIT\n1 < CF-RAY: 5ddff351ab3869d5-LHR\n1 < Cache-Control: max-age=14400\n1 < Connection: keep-alive\n1 < Content-Type: application\/json; charset=utf-8\n1 < Date: Tue, 06 Oct 2020 14:07:44 GMT\n1 < Etag: W\/\"4dd-IPv5LdOOb6s5S9E3i59wBCJ1k\/0\"\n1 < Expect-CT: max-age=604800, report-uri=\"https:\/\/report-uri.cloudflare.com\/cdn-cgi\/beacon\/expect-ct\"\n1 < NEL: {\"report_to\":\"cf-nel\",\"max_age\":604800}\n1 < Report-To: {\"endpoints\":[{\"url\":\"https:\\\/\\\/a.nel.cloudflare.com\\\/report?lkg-colo=21&lkg-time=1601993265\"}],\"group\":\"cf-nel\",\"max_age\":604800}\n1 < Server: cloudflare\n1 < Set-Cookie: __cfduid=d13db11910087a50ca116142dccde899d1601993264; expires=Thu, 05-Nov-20 14:07:44 GMT; path=\/; domain=.reqres.in; HttpOnly; SameSite=Lax; Secure\n1 < Transfer-Encoding: chunked\n1 < Vary: Accept-Encoding\n1 < Via: 1.1 vegur\n1 < X-Powered-By: Express\n1 < cf-request-id: 059fd66709000069d58fa4b200000001\n{\"page\":2,\"per_page\":6,\"total\":12,\"total_pages\":2,\"data\":[{\"id\":7,\"email\":\"michael.lawson@reqres.in\",\"first_name\":\"Michael\",\"last_name\":\"Lawson\",\"avatar\":\"https:\/\/s3.amazonaws.com\/uifaces\/faces\/twitter\/follettkyle\/128.jpg\"},{\"id\":8,\"email\":\"lindsay.ferguson@reqres.in\",\"first_name\":\"Lindsay\",\"last_name\":\"Ferguson\",\"avatar\":\"https:\/\/s3.amazonaws.com\/uifaces\/faces\/twitter\/araa3185\/128.jpg\"},{\"id\":9,\"email\":\"tobias.funke@reqres.in\",\"first_name\":\"Tobias\",\"last_name\":\"Funke\",\"avatar\":\"https:\/\/s3.amazonaws.com\/uifaces\/faces\/twitter\/vivekprvr\/128.jpg\"},{\"id\":10,\"email\":\"byron.fields@reqres.in\",\"first_name\":\"Byron\",\"last_name\":\"Fields\",\"avatar\":\"https:\/\/s3.amazonaws.com\/uifaces\/faces\/twitter\/russoedu\/128.jpg\"},{\"id\":11,\"email\":\"george.edwards@reqres.in\",\"first_name\":\"George\",\"last_name\":\"Edwards\",\"avatar\":\"https:\/\/s3.amazonaws.com\/uifaces\/faces\/twitter\/mrmoiree\/128.jpg\"},{\"id\":12,\"email\":\"rachel.howell@reqres.in\",\"first_name\":\"Rachel\",\"last_name\":\"Howell\",\"avatar\":\"https:\/\/s3.amazonaws.com\/uifaces\/faces\/twitter\/hebertialmeida\/128.jpg\"}],\"ad\":{\"company\":\"StatusCode Weekly\",\"url\":\"http:\/\/statuscode.org\/\",\"text\":\"A weekly newsletter focusing on software development, infrastructure, the server, performance, and the stack end of things.\"}}","line":9}},{"name":"status 200","result":{"duration":42700,"status":"passed"},"match":{"location":"karate","arguments":[]},"keyword":"Then","line":10},{"name":"def data = response.data","result":{"duration":21021000,"status":"passed"},"match":{"location":"karate","arguments":[]},"keyword":"*","line":11},{"name":"print  'data---',data","result":{"duration":5347300,"status":"passed"},"match":{"location":"karate","arguments":[]},"keyword":"Then","line":12,"doc_string":{"content_type":"","value":"15:07:44.663 [print] data--- [\n  {\n    \"last_name\": \"Lawson\",\n    \"id\": 7,\n    \"avatar\": \"https:\/\/s3.amazonaws.com\/uifaces\/faces\/twitter\/follettkyle\/128.jpg\",\n    \"first_name\": \"Michael\",\n    \"email\": \"michael.lawson@reqres.in\"\n  },\n  {\n    \"last_name\": \"Ferguson\",\n    \"id\": 8,\n    \"avatar\": \"https:\/\/s3.amazonaws.com\/uifaces\/faces\/twitter\/araa3185\/128.jpg\",\n    \"first_name\": \"Lindsay\",\n    \"email\": \"lindsay.ferguson@reqres.in\"\n  },\n  {\n    \"last_name\": \"Funke\",\n    \"id\": 9,\n    \"avatar\": \"https:\/\/s3.amazonaws.com\/uifaces\/faces\/twitter\/vivekprvr\/128.jpg\",\n    \"first_name\": \"Tobias\",\n    \"email\": \"tobias.funke@reqres.in\"\n  },\n  {\n    \"last_name\": \"Fields\",\n    \"id\": 10,\n    \"avatar\": \"https:\/\/s3.amazonaws.com\/uifaces\/faces\/twitter\/russoedu\/128.jpg\",\n    \"first_name\": \"Byron\",\n    \"email\": \"byron.fields@reqres.in\"\n  },\n  {\n    \"last_name\": \"Edwards\",\n    \"id\": 11,\n    \"avatar\": \"https:\/\/s3.amazonaws.com\/uifaces\/faces\/twitter\/mrmoiree\/128.jpg\",\n    \"first_name\": \"George\",\n    \"email\": \"george.edwards@reqres.in\"\n  },\n  {\n    \"last_name\": \"Howell\",\n    \"id\": 12,\n    \"avatar\": \"https:\/\/s3.amazonaws.com\/uifaces\/faces\/twitter\/hebertialmeida\/128.jpg\",\n    \"first_name\": \"Rachel\",\n    \"email\": \"rachel.howell@reqres.in\"\n  }\n]","line":12}},{"name":"def myFun =","result":{"duration":3838800,"status":"passed"},"match":{"location":"karate","arguments":[]},"keyword":"*","line":13,"doc_string":{"content_type":"","value":"function(arg){\nreturn arg.length\n}","line":13}},{"name":"def numberOfUsers = call myFun data","result":{"duration":16410600,"status":"passed"},"match":{"location":"karate","arguments":[]},"keyword":"*","line":19},{"name":"print 'numberOfUsers---',numberOfUsers","result":{"duration":5617700,"status":"passed"},"match":{"location":"karate","arguments":[]},"keyword":"Then","line":20,"doc_string":{"content_type":"","value":"15:07:44.694 [print] numberOfUsers--- 6","line":20}}]},{"line":3,"name":"","description":"","type":"background","keyword":"Background","steps":[{"name":"def expectedOutput = read('..\/Data\/result.json')","result":{"duration":7668700,"status":"passed"},"match":{"location":"karate","arguments":[]},"keyword":"*","line":5,"doc_string":{"content_type":"","value":"15:07:44.710 skipping bootstrap configuration: could not find or read file: classpath:karate-config.js","line":5}}]},{"line":23,"name":"GET request users id details","description":"","id":"get-request-users-id-details","type":"scenario","keyword":"Scenario","steps":[{"name":"url 'https:\/\/reqres.in\/api\/users?page=2'","result":{"duration":296600,"status":"passed"},"match":{"location":"karate","arguments":[]},"keyword":"Given","line":24},{"name":"method GET","result":{"duration":111432600,"status":"passed"},"match":{"location":"karate","arguments":[]},"keyword":"When","line":25,"doc_string":{"content_type":"","value":"15:07:44.710 request:\n1 > GET https:\/\/reqres.in\/api\/users?page=2\n1 > Accept-Encoding: gzip,deflate\n1 > Connection: Keep-Alive\n1 > Host: reqres.in\n1 > User-Agent: Apache-HttpClient\/4.5.12 (Java\/1.8.0_181)\n\n15:07:44.826 response time in milliseconds: 106.84\n1 < 200\n1 < Access-Control-Allow-Origin: *\n1 < Age: 3824\n1 < CF-Cache-Status: HIT\n1 < CF-RAY: 5ddff3530c0ddc0b-LHR\n1 < Cache-Control: max-age=14400\n1 < Connection: keep-alive\n1 < Content-Type: application\/json; charset=utf-8\n1 < Date: Tue, 06 Oct 2020 14:07:45 GMT\n1 < Etag: W\/\"4dd-IPv5LdOOb6s5S9E3i59wBCJ1k\/0\"\n1 < Expect-CT: max-age=604800, report-uri=\"https:\/\/report-uri.cloudflare.com\/cdn-cgi\/beacon\/expect-ct\"\n1 < NEL: {\"report_to\":\"cf-nel\",\"max_age\":604800}\n1 < Report-To: {\"endpoints\":[{\"url\":\"https:\\\/\\\/a.nel.cloudflare.com\\\/report?lkg-colo=21&lkg-time=1601993265\"}],\"group\":\"cf-nel\",\"max_age\":604800}\n1 < Server: cloudflare\n1 < Set-Cookie: __cfduid=dbc7dd19d21c04572081b6d16c6a1ad2e1601993265; expires=Thu, 05-Nov-20 14:07:45 GMT; path=\/; domain=.reqres.in; HttpOnly; SameSite=Lax; Secure\n1 < Transfer-Encoding: chunked\n1 < Vary: Accept-Encoding\n1 < Via: 1.1 vegur\n1 < X-Powered-By: Express\n1 < cf-request-id: 059fd667e60000dc0b30894200000001\n{\"page\":2,\"per_page\":6,\"total\":12,\"total_pages\":2,\"data\":[{\"id\":7,\"email\":\"michael.lawson@reqres.in\",\"first_name\":\"Michael\",\"last_name\":\"Lawson\",\"avatar\":\"https:\/\/s3.amazonaws.com\/uifaces\/faces\/twitter\/follettkyle\/128.jpg\"},{\"id\":8,\"email\":\"lindsay.ferguson@reqres.in\",\"first_name\":\"Lindsay\",\"last_name\":\"Ferguson\",\"avatar\":\"https:\/\/s3.amazonaws.com\/uifaces\/faces\/twitter\/araa3185\/128.jpg\"},{\"id\":9,\"email\":\"tobias.funke@reqres.in\",\"first_name\":\"Tobias\",\"last_name\":\"Funke\",\"avatar\":\"https:\/\/s3.amazonaws.com\/uifaces\/faces\/twitter\/vivekprvr\/128.jpg\"},{\"id\":10,\"email\":\"byron.fields@reqres.in\",\"first_name\":\"Byron\",\"last_name\":\"Fields\",\"avatar\":\"https:\/\/s3.amazonaws.com\/uifaces\/faces\/twitter\/russoedu\/128.jpg\"},{\"id\":11,\"email\":\"george.edwards@reqres.in\",\"first_name\":\"George\",\"last_name\":\"Edwards\",\"avatar\":\"https:\/\/s3.amazonaws.com\/uifaces\/faces\/twitter\/mrmoiree\/128.jpg\"},{\"id\":12,\"email\":\"rachel.howell@reqres.in\",\"first_name\":\"Rachel\",\"last_name\":\"Howell\",\"avatar\":\"https:\/\/s3.amazonaws.com\/uifaces\/faces\/twitter\/hebertialmeida\/128.jpg\"}],\"ad\":{\"company\":\"StatusCode Weekly\",\"url\":\"http:\/\/statuscode.org\/\",\"text\":\"A weekly newsletter focusing on software development, infrastructure, the server, performance, and the stack end of things.\"}}","line":25}},{"name":"status 200","result":{"duration":12700,"status":"passed"},"match":{"location":"karate","arguments":[]},"keyword":"Then","line":26},{"name":"def data = response.data","result":{"duration":1371800,"status":"passed"},"match":{"location":"karate","arguments":[]},"keyword":"*","line":27},{"name":"print  'data---',data","result":{"duration":1732800,"status":"passed"},"match":{"location":"karate","arguments":[]},"keyword":"Then","line":28,"doc_string":{"content_type":"","value":"15:07:44.826 [print] data--- [\n  {\n    \"last_name\": \"Lawson\",\n    \"id\": 7,\n    \"avatar\": \"https:\/\/s3.amazonaws.com\/uifaces\/faces\/twitter\/follettkyle\/128.jpg\",\n    \"first_name\": \"Michael\",\n    \"email\": \"michael.lawson@reqres.in\"\n  },\n  {\n    \"last_name\": \"Ferguson\",\n    \"id\": 8,\n    \"avatar\": \"https:\/\/s3.amazonaws.com\/uifaces\/faces\/twitter\/araa3185\/128.jpg\",\n    \"first_name\": \"Lindsay\",\n    \"email\": \"lindsay.ferguson@reqres.in\"\n  },\n  {\n    \"last_name\": \"Funke\",\n    \"id\": 9,\n    \"avatar\": \"https:\/\/s3.amazonaws.com\/uifaces\/faces\/twitter\/vivekprvr\/128.jpg\",\n    \"first_name\": \"Tobias\",\n    \"email\": \"tobias.funke@reqres.in\"\n  },\n  {\n    \"last_name\": \"Fields\",\n    \"id\": 10,\n    \"avatar\": \"https:\/\/s3.amazonaws.com\/uifaces\/faces\/twitter\/russoedu\/128.jpg\",\n    \"first_name\": \"Byron\",\n    \"email\": \"byron.fields@reqres.in\"\n  },\n  {\n    \"last_name\": \"Edwards\",\n    \"id\": 11,\n    \"avatar\": \"https:\/\/s3.amazonaws.com\/uifaces\/faces\/twitter\/mrmoiree\/128.jpg\",\n    \"first_name\": \"George\",\n    \"email\": \"george.edwards@reqres.in\"\n  },\n  {\n    \"last_name\": \"Howell\",\n    \"id\": 12,\n    \"avatar\": \"https:\/\/s3.amazonaws.com\/uifaces\/faces\/twitter\/hebertialmeida\/128.jpg\",\n    \"first_name\": \"Rachel\",\n    \"email\": \"rachel.howell@reqres.in\"\n  }\n]","line":28}},{"name":"def myFun =","result":{"duration":5205000,"status":"passed"},"match":{"location":"karate","arguments":[]},"keyword":"*","line":29,"doc_string":{"content_type":"","value":"function(arg){\nreturn arg[0].id\n}","line":29}},{"name":"def userDetails = call myFun data","result":{"duration":23493800,"status":"passed"},"match":{"location":"karate","arguments":[]},"keyword":"*","line":35},{"name":"print 'userDetails---',userDetails","result":{"duration":11113600,"status":"passed"},"match":{"location":"karate","arguments":[]},"keyword":"Then","line":36,"doc_string":{"content_type":"","value":"15:07:44.864 [print] userDetails--- 7","line":36}}]},{"line":3,"name":"","description":"","type":"background","keyword":"Background","steps":[{"name":"def expectedOutput = read('..\/Data\/result.json')","result":{"duration":13869900,"status":"passed"},"match":{"location":"karate","arguments":[]},"keyword":"*","line":5,"doc_string":{"content_type":"","value":"15:07:44.895 skipping bootstrap configuration: could not find or read file: classpath:karate-config.js","line":5}}]},{"line":39,"name":"GET request users id details of 9th person","description":"","id":"get-request-users-id-details-of-9th-person","type":"scenario","keyword":"Scenario","steps":[{"name":"url 'https:\/\/reqres.in\/api\/users?page=2'","result":{"duration":336800,"status":"passed"},"match":{"location":"karate","arguments":[]},"keyword":"Given","line":40},{"name":"method GET","result":{"duration":130492800,"status":"passed"},"match":{"location":"karate","arguments":[]},"keyword":"When","line":41,"doc_string":{"content_type":"","value":"15:07:44.911 request:\n1 > GET https:\/\/reqres.in\/api\/users?page=2\n1 > Accept-Encoding: gzip,deflate\n1 > Connection: Keep-Alive\n1 > Host: reqres.in\n1 > User-Agent: Apache-HttpClient\/4.5.12 (Java\/1.8.0_181)\n\n15:07:45.049 response time in milliseconds: 125.59\n1 < 200\n1 < Access-Control-Allow-Origin: *\n1 < Age: 3824\n1 < CF-Cache-Status: HIT\n1 < CF-RAY: 5ddff3546afd0639-LHR\n1 < Cache-Control: max-age=14400\n1 < Connection: keep-alive\n1 < Content-Type: application\/json; charset=utf-8\n1 < Date: Tue, 06 Oct 2020 14:07:45 GMT\n1 < Etag: W\/\"4dd-IPv5LdOOb6s5S9E3i59wBCJ1k\/0\"\n1 < Expect-CT: max-age=604800, report-uri=\"https:\/\/report-uri.cloudflare.com\/cdn-cgi\/beacon\/expect-ct\"\n1 < NEL: {\"report_to\":\"cf-nel\",\"max_age\":604800}\n1 < Report-To: {\"endpoints\":[{\"url\":\"https:\\\/\\\/a.nel.cloudflare.com\\\/report?lkg-colo=21&lkg-time=1601993265\"}],\"group\":\"cf-nel\",\"max_age\":604800}\n1 < Server: cloudflare\n1 < Set-Cookie: __cfduid=d84e8d1ece93f61d56695b58068bbb3991601993265; expires=Thu, 05-Nov-20 14:07:45 GMT; path=\/; domain=.reqres.in; HttpOnly; SameSite=Lax; Secure\n1 < Transfer-Encoding: chunked\n1 < Vary: Accept-Encoding\n1 < Via: 1.1 vegur\n1 < X-Powered-By: Express\n1 < cf-request-id: 059fd668bc0000063930207200000001\n{\"page\":2,\"per_page\":6,\"total\":12,\"total_pages\":2,\"data\":[{\"id\":7,\"email\":\"michael.lawson@reqres.in\",\"first_name\":\"Michael\",\"last_name\":\"Lawson\",\"avatar\":\"https:\/\/s3.amazonaws.com\/uifaces\/faces\/twitter\/follettkyle\/128.jpg\"},{\"id\":8,\"email\":\"lindsay.ferguson@reqres.in\",\"first_name\":\"Lindsay\",\"last_name\":\"Ferguson\",\"avatar\":\"https:\/\/s3.amazonaws.com\/uifaces\/faces\/twitter\/araa3185\/128.jpg\"},{\"id\":9,\"email\":\"tobias.funke@reqres.in\",\"first_name\":\"Tobias\",\"last_name\":\"Funke\",\"avatar\":\"https:\/\/s3.amazonaws.com\/uifaces\/faces\/twitter\/vivekprvr\/128.jpg\"},{\"id\":10,\"email\":\"byron.fields@reqres.in\",\"first_name\":\"Byron\",\"last_name\":\"Fields\",\"avatar\":\"https:\/\/s3.amazonaws.com\/uifaces\/faces\/twitter\/russoedu\/128.jpg\"},{\"id\":11,\"email\":\"george.edwards@reqres.in\",\"first_name\":\"George\",\"last_name\":\"Edwards\",\"avatar\":\"https:\/\/s3.amazonaws.com\/uifaces\/faces\/twitter\/mrmoiree\/128.jpg\"},{\"id\":12,\"email\":\"rachel.howell@reqres.in\",\"first_name\":\"Rachel\",\"last_name\":\"Howell\",\"avatar\":\"https:\/\/s3.amazonaws.com\/uifaces\/faces\/twitter\/hebertialmeida\/128.jpg\"}],\"ad\":{\"company\":\"StatusCode Weekly\",\"url\":\"http:\/\/statuscode.org\/\",\"text\":\"A weekly newsletter focusing on software development, infrastructure, the server, performance, and the stack end of things.\"}}","line":41}},{"name":"status 200","result":{"duration":11600,"status":"passed"},"match":{"location":"karate","arguments":[]},"keyword":"Then","line":42},{"name":"def data = response.data","result":{"duration":958100,"status":"passed"},"match":{"location":"karate","arguments":[]},"keyword":"*","line":43},{"name":"print  'data---',data","result":{"duration":948800,"status":"passed"},"match":{"location":"karate","arguments":[]},"keyword":"Then","line":44,"doc_string":{"content_type":"","value":"15:07:45.049 [print] data--- [\n  {\n    \"last_name\": \"Lawson\",\n    \"id\": 7,\n    \"avatar\": \"https:\/\/s3.amazonaws.com\/uifaces\/faces\/twitter\/follettkyle\/128.jpg\",\n    \"first_name\": \"Michael\",\n    \"email\": \"michael.lawson@reqres.in\"\n  },\n  {\n    \"last_name\": \"Ferguson\",\n    \"id\": 8,\n    \"avatar\": \"https:\/\/s3.amazonaws.com\/uifaces\/faces\/twitter\/araa3185\/128.jpg\",\n    \"first_name\": \"Lindsay\",\n    \"email\": \"lindsay.ferguson@reqres.in\"\n  },\n  {\n    \"last_name\": \"Funke\",\n    \"id\": 9,\n    \"avatar\": \"https:\/\/s3.amazonaws.com\/uifaces\/faces\/twitter\/vivekprvr\/128.jpg\",\n    \"first_name\": \"Tobias\",\n    \"email\": \"tobias.funke@reqres.in\"\n  },\n  {\n    \"last_name\": \"Fields\",\n    \"id\": 10,\n    \"avatar\": \"https:\/\/s3.amazonaws.com\/uifaces\/faces\/twitter\/russoedu\/128.jpg\",\n    \"first_name\": \"Byron\",\n    \"email\": \"byron.fields@reqres.in\"\n  },\n  {\n    \"last_name\": \"Edwards\",\n    \"id\": 11,\n    \"avatar\": \"https:\/\/s3.amazonaws.com\/uifaces\/faces\/twitter\/mrmoiree\/128.jpg\",\n    \"first_name\": \"George\",\n    \"email\": \"george.edwards@reqres.in\"\n  },\n  {\n    \"last_name\": \"Howell\",\n    \"id\": 12,\n    \"avatar\": \"https:\/\/s3.amazonaws.com\/uifaces\/faces\/twitter\/hebertialmeida\/128.jpg\",\n    \"first_name\": \"Rachel\",\n    \"email\": \"rachel.howell@reqres.in\"\n  }\n]","line":44}},{"name":"def myFun =","result":{"duration":28617900,"status":"passed"},"match":{"location":"karate","arguments":[]},"keyword":"*","line":45,"doc_string":{"content_type":"","value":"function(arg){\nfor (i=0; i<arg.length; i++){\nif (arg[i].id== 9){\nreturn arg[i]\n      }\n   }\n}","line":45}},{"name":"def userDetails = call myFun data","result":{"duration":62516600,"status":"passed"},"match":{"location":"karate","arguments":[]},"keyword":"*","line":55},{"name":"print 'userDetails---',userDetails","result":{"duration":1559600,"status":"passed"},"match":{"location":"karate","arguments":[]},"keyword":"Then","line":56,"doc_string":{"content_type":"","value":"15:07:45.147 [print] userDetails--- {\n  \"last_name\": \"Funke\",\n  \"id\": 9,\n  \"avatar\": \"https:\/\/s3.amazonaws.com\/uifaces\/faces\/twitter\/vivekprvr\/128.jpg\",\n  \"first_name\": \"Tobias\",\n  \"email\": \"tobias.funke@reqres.in\"\n}","line":56}}]}],"name":"src\/test\/java\/feature\/GetAllUsers.feature","description":"Get all users Details with functions","id":"get-all-users-details-with-functions","keyword":"Feature","uri":"src\/test\/java\/feature\/GetAllUsers.feature"}]