[{"line":1,"elements":[{"line":3,"name":"","description":"","type":"background","keyword":"Background","steps":[{"name":"url 'https:\/\/reqres.in'","result":{"duration":7541400,"status":"passed"},"match":{"location":"karate","arguments":[]},"keyword":"*","line":4,"doc_string":{"content_type":"","value":"13:07:30.654 skipping bootstrap configuration: could not find or read file: classpath:karate-config.js","line":4}}]},{"line":5,"name":"get call test","description":"","id":"get-call-test","type":"scenario","keyword":"Scenario","steps":[{"name":"path '\/api\/users?page=2'","result":{"duration":5670200,"status":"passed"},"match":{"location":"karate","arguments":[]},"keyword":"Given","line":6},{"name":"method GET","result":{"duration":1987633900,"status":"passed"},"match":{"location":"karate","arguments":[]},"keyword":"When","line":7,"doc_string":{"content_type":"","value":"13:07:32.089 request:\n1 > GET https:\/\/reqres.in\/api\/users%3Fpage=2\n1 > Accept-Encoding: gzip,deflate\n1 > Connection: Keep-Alive\n1 > Host: reqres.in\n1 > User-Agent: Apache-HttpClient\/4.5.12 (Java\/1.8.0_181)\n\n13:07:32.638 response time in milliseconds: 549.51\n1 < 200\n1 < Access-Control-Allow-Origin: *\n1 < CF-Cache-Status: MISS\n1 < CF-RAY: 5dbe4db2de8fce7f-LHR\n1 < Cache-Control: max-age=14400\n1 < Connection: keep-alive\n1 < Content-Type: application\/json; charset=utf-8\n1 < Date: Fri, 02 Oct 2020 12:07:31 GMT\n1 < Etag: W\/\"301-ijGNEim\/mAI7LpbQIXyQc2bjt+k\"\n1 < Expect-CT: max-age=604800, report-uri=\"https:\/\/report-uri.cloudflare.com\/cdn-cgi\/beacon\/expect-ct\"\n1 < NEL: {\"report_to\":\"cf-nel\",\"max_age\":604800}\n1 < Report-To: {\"endpoints\":[{\"url\":\"https:\\\/\\\/a.nel.cloudflare.com\\\/report?lkg-colo=21&lkg-time=1601640451\"}],\"group\":\"cf-nel\",\"max_age\":604800}\n1 < Server: cloudflare\n1 < Set-Cookie: __cfduid=dd20915e5c348704a84748b999ac083731601640451; expires=Sun, 01-Nov-20 12:07:31 GMT; path=\/; domain=.reqres.in; HttpOnly; SameSite=Lax; Secure\n1 < Transfer-Encoding: chunked\n1 < Vary: Accept-Encoding\n1 < Via: 1.1 vegur\n1 < X-Powered-By: Express\n1 < cf-request-id: 058acee3cb0000ce7f62255200000001\n{\"page\":1,\"per_page\":6,\"total\":12,\"total_pages\":2,\"data\":[{\"id\":1,\"name\":\"cerulean\",\"year\":2000,\"color\":\"#98B2D1\",\"pantone_value\":\"15-4020\"},{\"id\":2,\"name\":\"fuchsia rose\",\"year\":2001,\"color\":\"#C74375\",\"pantone_value\":\"17-2031\"},{\"id\":3,\"name\":\"true red\",\"year\":2002,\"color\":\"#BF1932\",\"pantone_value\":\"19-1664\"},{\"id\":4,\"name\":\"aqua sky\",\"year\":2003,\"color\":\"#7BC4C4\",\"pantone_value\":\"14-4811\"},{\"id\":5,\"name\":\"tigerlily\",\"year\":2004,\"color\":\"#E2583E\",\"pantone_value\":\"17-1456\"},{\"id\":6,\"name\":\"blue turquoise\",\"year\":2005,\"color\":\"#53B0AE\",\"pantone_value\":\"15-5217\"}],\"ad\":{\"company\":\"StatusCode Weekly\",\"url\":\"http:\/\/statuscode.org\/\",\"text\":\"A weekly newsletter focusing on software development, infrastructure, the server, performance, and the stack end of things.\"}}","line":7}},{"name":"status 200","result":{"duration":31900,"status":"passed"},"match":{"location":"karate","arguments":[]},"keyword":"Then","line":8}]}],"name":"src\/test\/java\/feature\/userdetails.feature","description":"user Details","id":"user-details","keyword":"Feature","uri":"src\/test\/java\/feature\/userdetails.feature"}]